{
    "Version": "2012-10-17",
    "Statement": [
        {
            "Effect": "Allow",
            "Action": "sqs:SendMessage",
            "Resource": "${aws_sqs_queue.job_offers_queue.arn}"
        }
    ]
}
